<?xml version="1.0" encoding="UTF-8" standalone="no"?>
<svg
   xmlns:dc="http://purl.org/dc/elements/1.1/"
   xmlns:cc="http://creativecommons.org/ns#"
   xmlns:rdf="http://www.w3.org/1999/02/22-rdf-syntax-ns#"
   xmlns:svg="http://www.w3.org/2000/svg"
   xmlns="http://www.w3.org/2000/svg"
   xmlns:sodipodi="http://sodipodi.sourceforge.net/DTD/sodipodi-0.dtd"
   xmlns:inkscape="http://www.inkscape.org/namespaces/inkscape"
   inkscape:version="1.0 (4035a4fb49, 2020-05-01)"
   sodipodi:docname="emptyHeart.svg"
   xml:space="preserve"
   style="enable-background:new 0 0 64 64;"
   viewBox="0 0 64 64"
   y="0px"
   x="0px"
   id="Layer_1"
   version="1.1"><metadata
   id="metadata22"><rdf:RDF><cc:Work
       rdf:about=""><dc:format>image/svg+xml</dc:format><dc:type
         rdf:resource="http://purl.org/dc/dcmitype/StillImage" /></cc:Work></rdf:RDF></metadata><defs
   id="defs20" /><sodipodi:namedview
   inkscape:current-layer="Layer_1"
   inkscape:window-maximized="1"
   inkscape:window-y="-9"
   inkscape:window-x="-9"
   inkscape:cy="38.705318"
   inkscape:cx="27.277542"
   inkscape:zoom="6.484375"
   showgrid="false"
   id="namedview18"
   inkscape:window-height="1001"
   inkscape:window-width="1920"
   inkscape:pageshadow="2"
   inkscape:pageopacity="0"
   guidetolerance="10"
   gridtolerance="10"
   objecttolerance="10"
   borderopacity="1"
   bordercolor="#666666"
   pagecolor="#ffffff" />
<style
   id="style2"
   type="text/css">
	.st0{fill:url(#SVGID_1_);}
</style>
<linearGradient
   y2="2.7564"
   x2="52.4813"
   y1="43.7178"
   x1="11.5199"
   gradientUnits="userSpaceOnUse"
   id="SVGID_1_">
	<stop
   id="stop4"
   style="stop-color:#F15A29"
   offset="0.0711" />
	<stop
   id="stop6"
   style="stop-color:#EE4D2C"
   offset="0.1759" />
	<stop
   id="stop8"
   style="stop-color:#EB362F"
   offset="0.3772" />
	<stop
   id="stop10"
   style="stop-color:#E92431"
   offset="0.5761" />
	<stop
   id="stop12"
   style="stop-color:#E81C32"
   offset="0.7685" />
</linearGradient>
<path
   style="fill:#1a1a1a"
   id="path15"
   d="M63.33,21.33c0-1.64-1.09-16.83-15.6-16.83C33.23,4.5,32,15.72,32,15.72c0,0-1.23-11.22-15.73-11.22  c-14.5,0-15.6,15.19-15.6,16.83C0.67,38.16,21.19,53.48,32,59.5C42.81,53.48,63.33,38.16,63.33,21.33"
   class="st0" />
</svg>
